R112    0x700000
R111    0x6F0000
R110    0x6E0000
R109    0x6D0000
R108    0x6C0000
R107    0x6B0000
R106    0x6A0000
R105    0x690021
R104    0x680000
R103    0x670000
R102    0x663f80
R101    0x650011
R100    0x640000
R99     0x630000
R98     0x620200
R97     0x610888
R96     0x600000
R95     0x5F0000
R94     0x5E0000
R93     0x5D0000
R92     0x5C0000
R91     0x5B0000
R90     0x5A0000
R89     0x590000
R88     0x580000
R87     0x570000
R86     0x560000
R85     0x55d300
R84     0x540001
R83     0x530000
R82     0x521e00
R81     0x510000
R80     0x506666
R79     0x4F0026
R78     0x4E00bf
R77     0x4D0000
R76     0x4C000c
R75     0x4B0800
R74     0x4A0000
R73     0x4906e4
R72     0x48003e
R71     0x470049
R70     0x46c350
R69     0x450000
R68     0x4403e8
R67     0x430000
R66     0x4201f4
R65     0x410000
R64     0x401388
R63     0x3F0000
R62     0x3E0322
R61     0x3D00a8
R60     0x3C0000
R59     0x3B0001
R58     0x3A0001
R57     0x390020
R56     0x380000
R55     0x370000
R54     0x360000
R53     0x350000
R52     0x340820
R51     0x330080
R50     0x320000
R49     0x314180
R48     0x300300
R47     0x2F0300
R46     0x2E07fe
R45     0x2Dc0df
R44     0x2C1f20
R43     0x2B0000
R42     0x2A0000
R41     0x290000
R40     0x280000
R39     0x27ffff
R38     0x26ffff
R37     0x250104
R36     0x2407d0
R35     0x230004
R34     0x220000
R33     0x211e21
R32     0x200393
R31     0x1F43ec
R30     0x1E318c
R29     0x1D318c
R28     0x1C0488
R27     0x1B0002
R26     0x1A0db0
R25     0x190624
R24     0x18071a
R23     0x17007c
R22     0x160001
R21     0x150401
R20     0x148848
R19     0x1327b7
R18     0x120064
R17     0x110110
R16     0x100080
R15     0x0F064f
R14     0x0E1e70
R13     0x0D4000
R12     0x0C5002
R11     0x0B0058
R10     0x0A10d8
R9      0x090604
R8      0x082000
R7      0x0740b2
R6      0x06c802
R5      0x0500c8
R4      0x040a43
R3      0x030642
R2      0x020500
R1      0x010808
R0      0x00641c